…
**10. As measured by the data, which snake species has the smallest homerange? Show all of your work, please. Look this species up online and tell me about it!** **Snake is found in taxon column**    

```r
snakes <- filter(homerange, taxon=="snakes")
```

```r
snake <- select(snakes, "common.name", "genus", "species", "mean.hra.m2", "log10.mass")
arrange(snake, mean.hra.m2)
```

```
## # A tibble: 41 × 5
##    common.name          genus       species      mean.hra.m2 log10.mass
##    <chr>                <chr>       <chr>              <dbl>      <dbl>
##  1 namaqua dwarf adder  bitis       schneideri          200       1.23 
##  2 eastern worm snake   carphopis   viridis             253       0.562
##  3 butlers garter snake thamnophis  butleri             600       1.33 
##  4 western worm snake   carphopis   vermis              700       0.539
##  5 snubnosed viper      vipera      latastei           2400       1.99 
##  6 chinese pit viper    gloydius    shedaoensis        2614.      2.29 
##  7 ringneck snake       diadophis   punctatus          6476       0.954
##  8 cottonmouth          agkistrodon piscivorous       10655       2.27 
##  9 redbacked ratsnake   oocatochus  rufodorsatus      15400       1.80 
## 10 gopher snake         pituophis   catenifer         17400       2.57 
## # … with 31 more rows
```

```r
arrange(snake, log10.mass)
```

```
## # A tibble: 41 × 5
##    common.name              genus         species      mean.hra.m2 log10.mass
##    <chr>                    <chr>         <chr>              <dbl>      <dbl>
##  1 western worm snake       carphopis     vermis               700      0.539
##  2 eastern worm snake       carphopis     viridis              253      0.562
##  3 ringneck snake           diadophis     punctatus           6476      0.954
##  4 namaqua dwarf adder      bitis         schneideri           200      1.23 
##  5 butlers garter snake     thamnophis    butleri              600      1.33 
##  6 broadheaded snake        hoplocephalus bungaroides        27379      1.69 
##  7 redbacked ratsnake       oocatochus    rufodorsatus       15400      1.80 
##  8 twin-spotted rattlesnake crotalus      pricei             22900      1.83 
##  9 grass snake              natrix        natrix             99000      1.89 
## 10 snubnosed viper          vipera        latastei            2400      1.99 
## # … with 31 more rows
```
…
