…
fisheries_tidy$catch <- as.numeric(fisheries_tidy$catch)
```

3. How many countries are represented in the data? Provide a count and list their names.

```r
fisheries_tidy %>% 
  count(country)
```

```
## # A tibble: 203 × 2
##    country                 n
##    <fct>               <int>
##  1 Albania               934
##  2 Algeria              1561
##  3 American Samoa        556
##  4 Angola               2119
##  5 Anguilla              129
##  6 Antigua and Barbuda   356
##  7 Argentina            3403
##  8 Aruba                 172
##  9 Australia            8183
## 10 Bahamas               423
## # … with 193 more rows
```

4. Refocus the data only to include country, isscaap_taxonomic_group, asfis_species_name, asfis_species_number, year, catch.

```r
fisheries_new<- fisheries_tidy %>% 
  select(!measure, !fao_major_fishing_area)
fisheries_new
```

```
## # A tibble: 376,771 × 10
##    country common_name        isscaap_group_n… isscaap_taxonom… asfis_species_n…
##    <fct>   <chr>              <fct>            <chr>            <fct>           
##  1 Albania Angelsharks, sand… 38               Sharks, rays, c… 10903XXXXX      
##  2 Albania Angelsharks, sand… 38               Sharks, rays, c… 10903XXXXX      
##  3 Albania Angelsharks, sand… 38               Sharks, rays, c… 10903XXXXX      
##  4 Albania Angelsharks, sand… 38               Sharks, rays, c… 10903XXXXX      
##  5 Albania Angelsharks, sand… 38               Sharks, rays, c… 10903XXXXX      
##  6 Albania Angelsharks, sand… 38               Sharks, rays, c… 10903XXXXX      
##  7 Albania Angelsharks, sand… 38               Sharks, rays, c… 10903XXXXX      
##  8 Albania Angelsharks, sand… 38               Sharks, rays, c… 10903XXXXX      
##  9 Albania Angelsharks, sand… 38               Sharks, rays, c… 10903XXXXX      
## 10 Albania Angelsharks, sand… 38               Sharks, rays, c… 10903XXXXX      
## # … with 376,761 more rows, and 5 more variables: asfis_species_name <chr>,
## #   fao_major_fishing_area <fct>, year <dbl>, catch <dbl>, measure <chr>
```

5. Based on the asfis_species_number, how many distinct fish species were caught as part of these data?

```r
fisheries_tidy %>% 
  count(asfis_species_number)
```

```
## # A tibble: 1,551 × 2
##    asfis_species_number     n
##    <fct>                <int>
##  1 10903XXXXX             138
##  2 1750100101            1923
##  3 17710001XX            2675
##  4 2280203101             130
##  5 1480403301             915
##  6 1702021301            1450
##  7 1703926101            1105
##  8 2280100117             305
##  9 10801003XX             103
## 10 3210200202             699
## # … with 1,541 more rows
```

6. Which country had the largest overall catch in the year 2000?

```r
fisheries_tidy %>% 
  filter(year==2000) %>% 
  group_by(country) %>% 
  summarise(catch_total=sum(catch,na.rm=T)) %>% 
  arrange(desc(catch_total))
```

```
## # A tibble: 193 × 2
##    country                  catch_total
##    <fct>                          <dbl>
##  1 China                          25899
##  2 Russian Federation             12181
##  3 United States of America       11762
##  4 Japan                           8510
##  5 Indonesia                       8341
##  6 Peru                            7443
##  7 Chile                           6906
##  8 India                           6351
##  9 Thailand                        6243
## 10 Korea, Republic of              6124
## # … with 183 more rows
```

7. Which country caught the most sardines (_Sardina pilchardus_) between the years 1990-2000?

```r
fisheries_new %>% 
  filter(year>=1990, year<=2000) %>% 
  filter(asfis_species_name=="Sardina pilchardus") %>% 
  group_by(country) %>% 
  summarise(total_sardine=sum(catch, na.rm=T)) %>% 
  arrange(desc(total_sardine))
```

```
## # A tibble: 37 × 2
##    country               total_sardine
##    <fct>                         <dbl>
##  1 Morocco                        7470
##  2 Spain                          3507
##  3 Russian Federation             1639
##  4 Ukraine                        1030
##  5 France                          966
##  6 Portugal                        818
##  7 Greece                          528
##  8 Italy                           507
##  9 Serbia and Montenegro           478
## 10 Denmark                         477
## # … with 27 more rows
```
…
9. Which species had the highest catch total between 2008-2012? (hint: Osteichthyes is not a species)

```r
fisheries_tidy %>% 
  filter(between(year,2008,2012)) %>% 
  group_by(asfis_species_name) %>% 
  summarize(catch_total=sum(catch, na.rm=T)) %>% 
  arrange(desc(catch_total))
```

```
## # A tibble: 1,472 × 2
##    asfis_species_name    catch_total
##    <chr>                       <dbl>
##  1 Osteichthyes               107808
##  2 Theragra chalcogramma       41075
##  3 Engraulis ringens           35523
##  4 Katsuwonus pelamis          32153
##  5 Trichiurus lepturus         30400
##  6 Clupea harengus             28527
##  7 Thunnus albacares           20119
##  8 Scomber japonicus           14723
##  9 Gadus morhua                13253
## 10 Thunnus alalunga            12019
## # … with 1,462 more rows
```

10. Use the data to do at least one analysis of your choice.

```r
# Which country caught the most fish between 1990 and 1995?
fisheries_tidy %>% 
  filter(between(year,1990,1995)) %>% 
  group_by(country) %>% 
  summarize(catch_total=sum(catch, na.rm=T)) %>% 
  arrange(desc((catch_total)))
```

```
## # A tibble: 194 × 2
##    country                  catch_total
##    <fct>                          <dbl>
##  1 Japan                         100435
##  2 United States of America       94257
##  3 China                          80597
##  4 Peru                           69252
##  5 Russian Federation             67861
##  6 Chile                          47669
##  7 Korea, Republic of             42906
##  8 Indonesia                      34690
##  9 India                          32859
## 10 Norway                         27988
## # … with 184 more rows
```
…
