…
```r
new_wolves<- wolves %>% 
  filter(pop!="AK.PEN" & pop!="INT.AK" & pop!= "SE.AK" & pop!= "ONT")
```

```r
new_wolves
```

```
## # A tibble: 1,781 × 23
##    pop      year age.cat sex   color   lat  long habitat human pop.density
##    <chr>   <dbl> <chr>   <chr> <chr> <dbl> <dbl>   <dbl> <dbl>       <dbl>
##  1 BAN.JAS  2001 A       F     B      52.2 -117.  18553. 1145.        8.85
##  2 BAN.JAS  2003 A       F     B      52.2 -117.  18553. 1145.        8.85
##  3 BAN.JAS  2001 A       F     B      52.2 -117.  18553. 1145.        8.85
##  4 BAN.JAS  2003 A       F     B      52.2 -117.  18553. 1145.        8.85
##  5 BAN.JAS  2005 S       M     B      52.2 -117.  18553. 1145.        8.85
##  6 BAN.JAS  2001 A       F     G      52.2 -117.  18553. 1145.        8.85
##  7 BAN.JAS  2001 S       F     G      52.2 -117.  18553. 1145.        8.85
##  8 BAN.JAS  2006 A       F     <NA>   52.2 -117.  18553. 1145.        8.85
##  9 BAN.JAS  2001 A       M     G      52.2 -117.  18553. 1145.        8.85
## 10 BAN.JAS  2003 A       M     G      52.2 -117.  18553. 1145.        8.85
## # … with 1,771 more rows, and 13 more variables: pack.size <dbl>,
## #   standard.habitat <dbl>, standard.human <dbl>, standard.pop <dbl>,
## #   standard.packsize <dbl>, standard.latitude <dbl>, standard.longitude <dbl>,
## #   cav.binary <dbl>, cdv.binary <dbl>, cpv.binary <dbl>, chv.binary <dbl>,
## #   neo.binary <dbl>, toxo.binary <dbl>
```
…
